…
    ## [1] 43854.52

    ## [1] 0.6340561

    ## [1] 0.6335213

After creating the selected model, we found that the full and selected models were identical, which indicates that the full model had the best predictive power.

#### The perfect historical popularity index

Based on the full and selected models, to have the highest popularity index score, one should: be a man, study in the domain of the humanities, live somewhere in Europe, have many translations of their article, and be born before the Common era.

    ## # A tibble: 49 x 8
    ##     rank full_name  historical_popu… article_languag… birth_year continent
    ##    <int> <chr>                 <dbl>            <int>      <int> <chr>    
    ##  1     1 Aristotle              32.0              152       -384 Europe   
    ##  2     2 Plato                  32.0              142       -427 Europe   
    ##  3     4 Socrates               31.7              137       -469 Europe   
    ##  4     8 Homer                  31.1              141       -800 Europe   
    ##  5     9 Pythagoras             31.1              114       -570 Europe   
    ##  6    30 Virgil                 29.9              114        -70 Europe   
    ##  7    35 Sophocles              29.7              100       -496 Europe   
    ##  8    46 Epicurus               29.5               68       -341 Europe   
    ##  9    53 Ovid                   29.3               88        -43 Europe   
    ## 10    66 Aeschylus              29.1               74       -525 Europe   
    ## # ... with 39 more rows, and 2 more variables: domain <chr>,
    ## #   occupation <chr>
…
